{
    "sourceFile": "src/assets/icons/index.js",
    "activeCommit": 0,
    "commits": [
        {
            "activePatchIndex": 1,
            "patches": [
                {
                    "date": 1627114556298,
                    "content": "Index: \n===================================================================\n--- \n+++ \n"
                },
                {
                    "date": 1627114584503,
                    "content": "Index: \n===================================================================\n--- \n+++ \n@@ -2,17 +2,8 @@\n import { logo } from './logo'\r\n import { logoNegative } from './logo-negative'\r\n \r\n import {\r\n-  FaRegDotCircle,\r\n-  FaRegEdit,\r\n-  FaTrash,\r\n-  FaUserTag,\r\n-  FaBan,\r\n-  FaPaperPlane\r\n-} from 'react-icons/fa'\r\n-\r\n-import {\r\n   cibSkype,\r\n   cibFacebook,\r\n   cibTwitter,\r\n   cibLinkedin,\r\n"
                }
            ],
            "date": 1627114556298,
            "name": "Commit-0",
            "content": "import { sygnet } from './sygnet'\r\nimport { logo } from './logo'\r\nimport { logoNegative } from './logo-negative'\r\n\r\nimport {\r\n  FaRegDotCircle,\r\n  FaRegEdit,\r\n  FaTrash,\r\n  FaUserTag,\r\n  FaBan,\r\n  FaPaperPlane\r\n} from 'react-icons/fa'\r\n\r\nimport {\r\n  cibSkype,\r\n  cibFacebook,\r\n  cibTwitter,\r\n  cibLinkedin,\r\n  cibFlickr,\r\n  cibTumblr,\r\n  cibXing,\r\n  cibGithub,\r\n  cibStackoverflow,\r\n  cibYoutube,\r\n  cibDribbble,\r\n  cibInstagram,\r\n  cibPinterest,\r\n  cibVk,\r\n  cibYahoo,\r\n  cibBehance,\r\n  cibReddit,\r\n  cibVimeo,\r\n  cibCcMastercard,\r\n  cibCcVisa,\r\n  cibStripe,\r\n  cibPaypal,\r\n  cibGooglePay,\r\n  cibCcAmex\r\n} from '@coreui/icons'\r\nimport {\r\n  cifUs,\r\n  cifBr,\r\n  cifIn,\r\n  cifFr,\r\n  cifEs,\r\n  cifPl\r\n} from '@coreui/icons'\r\nimport {\r\n  cilAlignCenter,\r\n  cilAlignLeft,\r\n  cilAlignRight,\r\n  cilApplicationsSettings,\r\n  cilArrowRight,\r\n  cilArrowTop,\r\n  cilAsterisk,\r\n  cilBan,\r\n  cilBasket,\r\n  cilBell,\r\n  cilBold,\r\n  cilBookmark,\r\n  cilCalculator,\r\n  cilCalendar,\r\n  cilCloudDownload,\r\n  cilChartPie,\r\n  cilCheck,\r\n  cilChevronBottom,\r\n  cilChevronLeft,\r\n  cilChevronRight,\r\n  cilChevronTop,\r\n  cilCircle,\r\n  cilCheckCircle,\r\n  cilCode,\r\n  cilCommentSquare,\r\n  cilCreditCard,\r\n  cilCursor,\r\n  cilCursorMove,\r\n  cilDrop,\r\n  cilDollar,\r\n  cilEnvelopeClosed,\r\n  cilEnvelopeLetter,\r\n  cilEnvelopeOpen,\r\n  cilEuro,\r\n  cilGlobeAlt,\r\n  cilGrid,\r\n  cilFile,\r\n  cilFullscreen,\r\n  cilFullscreenExit,\r\n  cilGraph,\r\n  cilHome,\r\n  cilInbox,\r\n  cilIndentDecrease,\r\n  cilIndentIncrease,\r\n  cilInputPower,\r\n  cilItalic,\r\n  cilJustifyCenter,\r\n  cilJustifyLeft,\r\n  cilLaptop,\r\n  cilLayers,\r\n  cilLightbulb,\r\n  cilList,\r\n  cilListNumbered,\r\n  cilListRich,\r\n  cilLocationPin,\r\n  cilLockLocked,\r\n  cilMagnifyingGlass,\r\n  cilMap,\r\n  cilMoon,\r\n  cilNotes,\r\n  cilOptions,\r\n  cilPaperclip,\r\n  cilPaperPlane,\r\n  cilPencil,\r\n  cilPeople,\r\n  cilPhone,\r\n  cilPrint,\r\n  cilPuzzle,\r\n  cilSave,\r\n  cilScrubber,\r\n  cilSettings,\r\n  cilShare,\r\n  cilShareAll,\r\n  cilShareBoxed,\r\n  cilShieldAlt,\r\n  cilSpeech,\r\n  cilSpeedometer,\r\n  cilSpreadsheet,\r\n  cilStar,\r\n  cilSun,\r\n  cilTags,\r\n  cilTask,\r\n  cilTrash,\r\n  cilUnderline,\r\n  cilUser,\r\n  cilUserFemale,\r\n  cilUserFollow,\r\n  cilUserUnfollow,\r\n  cilX,\r\n  cilXCircle,\r\n  cilWarning\r\n} from '@coreui/icons'\r\n\r\nexport const icons = Object.assign({}, {\r\n  sygnet,\r\n  logo,\r\n  logoNegative\r\n}, {\r\n  cilAlignCenter,\r\n  cilAlignLeft,\r\n  cilAlignRight,\r\n  cilApplicationsSettings,\r\n  cilArrowRight,\r\n  cilArrowTop,\r\n  cilAsterisk,\r\n  cilBan,\r\n  cilBasket,\r\n  cilBell,\r\n  cilBold,\r\n  cilBookmark,\r\n  cilCalculator,\r\n  cilCalendar,\r\n  cilCloudDownload,\r\n  cilChartPie,\r\n  cilCheck,\r\n  cilChevronBottom,\r\n  cilChevronLeft,\r\n  cilChevronRight,\r\n  cilChevronTop,\r\n  cilCircle,\r\n  cilCheckCircle,\r\n  cilCode,\r\n  cilCommentSquare,\r\n  cilCreditCard,\r\n  cilCursor,\r\n  cilCursorMove,\r\n  cilDrop,\r\n  cilDollar,\r\n  cilEnvelopeClosed,\r\n  cilEnvelopeLetter,\r\n  cilEnvelopeOpen,\r\n  cilEuro,\r\n  cilGlobeAlt,\r\n  cilGrid,\r\n  cilFile,\r\n  cilFullscreen,\r\n  cilFullscreenExit,\r\n  cilGraph,\r\n  cilHome,\r\n  cilInbox,\r\n  cilIndentDecrease,\r\n  cilIndentIncrease,\r\n  cilInputPower,\r\n  cilItalic,\r\n  cilJustifyCenter,\r\n  cilJustifyLeft,\r\n  cilLaptop,\r\n  cilLayers,\r\n  cilLightbulb,\r\n  cilList,\r\n  cilListNumbered,\r\n  cilListRich,\r\n  cilLocationPin,\r\n  cilLockLocked,\r\n  cilMagnifyingGlass,\r\n  cilMap,\r\n  cilMoon,\r\n  cilNotes,\r\n  cilOptions,\r\n  cilPaperclip,\r\n  cilPaperPlane,\r\n  cilPencil,\r\n  cilPeople,\r\n  cilPhone,\r\n  cilPrint,\r\n  cilPuzzle,\r\n  cilSave,\r\n  cilScrubber,\r\n  cilSettings,\r\n  cilShare,\r\n  cilShareAll,\r\n  cilShareBoxed,\r\n  cilShieldAlt,\r\n  cilSpeech,\r\n  cilSpeedometer,\r\n  cilSpreadsheet,\r\n  cilStar,\r\n  cilSun,\r\n  cilTags,\r\n  cilTask,\r\n  cilTrash,\r\n  cilUnderline,\r\n  cilUser,\r\n  cilUserFemale,\r\n  cilUserFollow,\r\n  cilUserUnfollow,\r\n  cilX,\r\n  cilXCircle,\r\n  cilWarning\r\n}, {\r\n  cifUs,\r\n  cifBr,\r\n  cifIn,\r\n  cifFr,\r\n  cifEs,\r\n  cifPl\r\n}, {\r\n  cibSkype,\r\n  cibFacebook,\r\n  cibTwitter,\r\n  cibLinkedin,\r\n  cibFlickr,\r\n  cibTumblr,\r\n  cibXing,\r\n  cibGithub,\r\n  cibStackoverflow,\r\n  cibYoutube,\r\n  cibDribbble,\r\n  cibInstagram,\r\n  cibPinterest,\r\n  cibVk,\r\n  cibYahoo,\r\n  cibBehance,\r\n  cibReddit,\r\n  cibVimeo,\r\n  cibCcMastercard,\r\n  cibCcVisa,\r\n  cibStripe,\r\n  cibPaypal,\r\n  cibGooglePay,\r\n  cibCcAmex\r\n})\r\n"
        }
    ]
}