{
    "sourceFile": "src/components/Context.js",
    "activeCommit": 0,
    "commits": [
        {
            "activePatchIndex": 12,
            "patches": [
                {
                    "date": 1624443588926,
                    "content": "Index: \n===================================================================\n--- \n+++ \n"
                },
                {
                    "date": 1624443597147,
                    "content": "Index: \n===================================================================\n--- \n+++ \n@@ -60,11 +60,11 @@\n         'Authorization': 'Bearer ' + localStorage.getItem(\"access_token\")\r\n     },\r\n \r\n     // id user type\r\n-    Admin : '1',\r\n+    Admin    : '1',\r\n     Employee : '2',\r\n-    Teacher : '3',\r\n-    Student : '4',\r\n-    Other : '5',\r\n+    Teacher  : '3',\r\n+    Student  : '4',\r\n+    Other    : '5',\r\n \r\n }))\r\n"
                },
                {
                    "date": 1624444251929,
                    "content": "Index: \n===================================================================\n--- \n+++ \n@@ -34,9 +34,9 @@\n             \r\n         })\r\n     },\r\n \r\n-    // logout\r\n+    // logout app\r\n     logOut : () => {\r\n         const url    = process.env.REACT_APP_ROOT_URL + 'logout'\r\n         const config = {\r\n             headers: {\r\n"
                },
                {
                    "date": 1624681880430,
                    "content": "Index: \n===================================================================\n--- \n+++ \n@@ -59,12 +59,5 @@\n     headers: {\r\n         'Authorization': 'Bearer ' + localStorage.getItem(\"access_token\")\r\n     },\r\n \r\n-    // id user type\r\n-    Admin    : '1',\r\n-    Employee : '2',\r\n-    Teacher  : '3',\r\n-    Student  : '4',\r\n-    Other    : '5',\r\n-\r\n }))\r\n"
                },
                {
                    "date": 1625372446195,
                    "content": "Index: \n===================================================================\n--- \n+++ \n@@ -46,8 +46,9 @@\n \r\n         axios.get( url, config )\r\n         .then(res => {\r\n           localStorage.removeItem(\"access_token\")\r\n+          localStorage.removeItem(\"detail_user\")\r\n           window.location = '/'\r\n           window.location.reload() \r\n         })\r\n         .catch(error => {\r\n"
                },
                {
                    "date": 1625373754844,
                    "content": "Index: \n===================================================================\n--- \n+++ \n@@ -46,9 +46,8 @@\n \r\n         axios.get( url, config )\r\n         .then(res => {\r\n           localStorage.removeItem(\"access_token\")\r\n-          localStorage.removeItem(\"detail_user\")\r\n           window.location = '/'\r\n           window.location.reload() \r\n         })\r\n         .catch(error => {\r\n"
                },
                {
                    "date": 1625376827395,
                    "content": "Index: \n===================================================================\n--- \n+++ \n@@ -59,5 +59,9 @@\n     headers: {\r\n         'Authorization': 'Bearer ' + localStorage.getItem(\"access_token\")\r\n     },\r\n \r\n+    formatRupiah : (num) => {\r\n+        return 'Rp. ' + num.toFixed(2).replace(/(\\d)(?=(\\d{3})+(?!\\d))/g, '$1,')\r\n+    }\r\n+\r\n }))\r\n"
                },
                {
                    "date": 1625376927620,
                    "content": "Index: \n===================================================================\n--- \n+++ \n@@ -60,8 +60,8 @@\n         'Authorization': 'Bearer ' + localStorage.getItem(\"access_token\")\r\n     },\r\n \r\n     formatRupiah : (num) => {\r\n-        return 'Rp. ' + num.toFixed(2).replace(/(\\d)(?=(\\d{3})+(?!\\d))/g, '$1,')\r\n+        return 'Rp. ' + num.toFixed(0).replace(/(\\d)(?=(\\d{3})+(?!\\d))/g, '$1,')\r\n     }\r\n \r\n }))\r\n"
                },
                {
                    "date": 1625655531453,
                    "content": "Index: \n===================================================================\n--- \n+++ \n@@ -54,14 +54,14 @@\n             console.log('error')\r\n         })\r\n     },\r\n \r\n+    formatRupiah : (num) => {\r\n+        return 'Rp. ' + num.toFixed(0).replace(/(\\d)(?=(\\d{3})+(?!\\d))/g, '$1,')\r\n+    },\r\n+\r\n     // header \r\n     headers: {\r\n         'Authorization': 'Bearer ' + localStorage.getItem(\"access_token\")\r\n     },\r\n \r\n-    formatRupiah : (num) => {\r\n-        return 'Rp. ' + num.toFixed(0).replace(/(\\d)(?=(\\d{3})+(?!\\d))/g, '$1,')\r\n-    }\r\n-\r\n }))\r\n"
                },
                {
                    "date": 1625656226032,
                    "content": "Index: \n===================================================================\n--- \n+++ \n@@ -1,7 +1,7 @@\n import create from 'zustand'\r\n import axios from 'axios'\r\n-export const [useContext] = create(set => ({\r\n+export const useContext = create(set => ({\r\n \r\n     // examples\r\n     test : 0,\r\n     testFunction : () => \r\n"
                },
                {
                    "date": 1625664806135,
                    "content": "Index: \n===================================================================\n--- \n+++ \n@@ -46,8 +46,9 @@\n \r\n         axios.get( url, config )\r\n         .then(res => {\r\n           localStorage.removeItem(\"access_token\")\r\n+          localStorage.removeItem(\"user\")\r\n           window.location = '/'\r\n           window.location.reload() \r\n         })\r\n         .catch(error => {\r\n"
                },
                {
                    "date": 1627093599422,
                    "content": "Index: \n===================================================================\n--- \n+++ \n@@ -55,14 +55,36 @@\n             console.log('error')\r\n         })\r\n     },\r\n \r\n+    // header \r\n+    headers: {\r\n+        'Authorization': 'Bearer ' + localStorage.getItem(\"access_token\")\r\n+    },\r\n+\r\n     formatRupiah : (num) => {\r\n         return 'Rp. ' + num.toFixed(0).replace(/(\\d)(?=(\\d{3})+(?!\\d))/g, '$1,')\r\n     },\r\n \r\n-    // header \r\n-    headers: {\r\n-        'Authorization': 'Bearer ' + localStorage.getItem(\"access_token\")\r\n+    getBase64 : (file) => {\r\n+        return new Promise(resolve => {\r\n+            let fileInfo;\r\n+            let baseURL = \"\";\r\n+            // Make new FileReader\r\n+            let reader = new FileReader();\r\n+      \r\n+            // Convert the file to base64 text\r\n+            reader.readAsDataURL(file);\r\n+      \r\n+            // on reader load somthing...\r\n+            reader.onload = () => {\r\n+              // Make a fileInfo Object\r\n+              // console.log(\"Called\", reader);\r\n+              baseURL = reader.result;\r\n+              // console.log(baseURL);\r\n+              resolve(baseURL);\r\n+            };\r\n+          //   console.log(fileInfo);\r\n+          });\r\n     },\r\n \r\n }))\r\n"
                },
                {
                    "date": 1627095275724,
                    "content": "Index: \n===================================================================\n--- \n+++ \n@@ -64,27 +64,5 @@\n     formatRupiah : (num) => {\r\n         return 'Rp. ' + num.toFixed(0).replace(/(\\d)(?=(\\d{3})+(?!\\d))/g, '$1,')\r\n     },\r\n \r\n-    getBase64 : (file) => {\r\n-        return new Promise(resolve => {\r\n-            let fileInfo;\r\n-            let baseURL = \"\";\r\n-            // Make new FileReader\r\n-            let reader = new FileReader();\r\n-      \r\n-            // Convert the file to base64 text\r\n-            reader.readAsDataURL(file);\r\n-      \r\n-            // on reader load somthing...\r\n-            reader.onload = () => {\r\n-              // Make a fileInfo Object\r\n-              // console.log(\"Called\", reader);\r\n-              baseURL = reader.result;\r\n-              // console.log(baseURL);\r\n-              resolve(baseURL);\r\n-            };\r\n-          //   console.log(fileInfo);\r\n-          });\r\n-    },\r\n-\r\n }))\r\n"
                }
            ],
            "date": 1624443588926,
            "name": "Commit-0",
            "content": "import create from 'zustand'\r\nimport axios from 'axios'\r\nexport const [useContext] = create(set => ({\r\n\r\n    // examples\r\n    test : 0,\r\n    testFunction : () => \r\n        set( state => ({\r\n            test : state.test + 1\r\n        })\r\n    ),\r\n\r\n\r\n    // check expaired session login based on database\r\n    checkLogin : () => {\r\n        const url    = process.env.REACT_APP_ROOT_URL + \"get_expired_token\"\r\n        const config = {\r\n            headers: {\r\n                'Authorization': 'Bearer ' + localStorage.getItem(\"access_token\")\r\n            }\r\n        }\r\n  \r\n        axios.get(url, config)\r\n        .then( res => {\r\n            \r\n        })\r\n        .catch(error => {\r\n            alert('waktu login anda habis, silahkan login kembali')\r\n            localStorage.removeItem(\"access_token\")\r\n            window.location = '/'\r\n            window.location.reload() \r\n        })\r\n        .then(() => {\r\n            \r\n        })\r\n    },\r\n\r\n    // logout\r\n    logOut : () => {\r\n        const url    = process.env.REACT_APP_ROOT_URL + 'logout'\r\n        const config = {\r\n            headers: {\r\n                'Authorization': 'Bearer ' + localStorage.getItem(\"access_token\")\r\n            }\r\n        }\r\n\r\n        axios.get( url, config )\r\n        .then(res => {\r\n          localStorage.removeItem(\"access_token\")\r\n          window.location = '/'\r\n          window.location.reload() \r\n        })\r\n        .catch(error => {\r\n            console.log('error')\r\n        })\r\n    },\r\n\r\n    // header \r\n    headers: {\r\n        'Authorization': 'Bearer ' + localStorage.getItem(\"access_token\")\r\n    },\r\n\r\n    // id user type\r\n    Admin : '1',\r\n    Employee : '2',\r\n    Teacher : '3',\r\n    Student : '4',\r\n    Other : '5',\r\n\r\n}))\r\n"
        }
    ]
}