{
    "sourceFile": "src/views/App/Dashboard.js",
    "activeCommit": 0,
    "commits": [
        {
            "activePatchIndex": 10,
            "patches": [
                {
                    "date": 1627171348088,
                    "content": "Index: \n===================================================================\n--- \n+++ \n"
                },
                {
                    "date": 1627171362978,
                    "content": "Index: \n===================================================================\n--- \n+++ \n@@ -40,9 +40,9 @@\n                 <div className=\"card-body\">\r\n \r\n                 <div className=\"row\">\r\n                   <div className=\"col-md-6\">\r\n-                    <h5 className=\"font-weight-bold\"> Jadwal Sholat {city} </h5>\r\n+                    <h5 className=\"font-weight-bold\"> Jadwal Sholsat {city} </h5>\r\n                     <small className=\"mt--2 text-white-50\">{date}</small>\r\n                   </div>\r\n                 </div>\r\n \r\n"
                },
                {
                    "date": 1627171374031,
                    "content": "Index: \n===================================================================\n--- \n+++ \n@@ -34,15 +34,15 @@\n         <div className=\"col-md-10\">\r\n \r\n           <div className=\"row\">\r\n             \r\n-            <div className=\"col-md-12 px-2\">\r\n+            <div className=\"col-md-6 px-2\">\r\n               <div className=\"card rounded-2 shadow p-3 bg-primary-color-light-gradient\">\r\n                 <div className=\"card-body\">\r\n \r\n                 <div className=\"row\">\r\n-                  <div className=\"col-md-6\">\r\n-                    <h5 className=\"font-weight-bold\"> Jadwal Sholsat {city} </h5>\r\n+                  <div className=\"col-md-12\">\r\n+                    <h5 className=\"font-weight-bold\"> Jadwal Sholat {city} </h5>\r\n                     <small className=\"mt--2 text-white-50\">{date}</small>\r\n                   </div>\r\n                 </div>\r\n \r\n"
                },
                {
                    "date": 1627171382363,
                    "content": "Index: \n===================================================================\n--- \n+++ \n@@ -0,0 +1,132 @@\n+import React, { useState, useEffect } from 'react'\r\n+import { FcViewDetails, FcCalendar, FcAlarmClock, FcComboChart } from \"react-icons/fc\"\r\n+import axios from 'axios'\r\n+\r\n+const Dashboard = () => {\r\n+\r\n+  const [jadwalSholat, setjadwalSholat] = useState([])\r\n+  const [city, setCity] = useState('')\r\n+  const [date, setDate] = useState('')\r\n+\r\n+  const getJadwalSholat = () => {\r\n+\r\n+    axios.get('https://api.pray.zone/v2/times/today.json?city=bandung')\r\n+    .then(function (data) {\r\n+      setDate(data.data.results.datetime[0].date.gregorian + ' / ' + data.data.results.datetime[0].date.hijri)\r\n+      setCity(data.data.results.location.city)\r\n+      setjadwalSholat(data.data.results.datetime[0].times)\r\n+    })\r\n+    .catch(function (error) {\r\n+      console.log(error)\r\n+    })\r\n+    \r\n+  }\r\n+\r\n+  useEffect(() => {\r\n+    getJadwalSholat()\r\n+    // eslint-disable-next-line react-hooks/exhaustive-deps\r\n+  }, [])\r\n+\r\n+\r\n+  return (\r\n+    <>\r\n+      <div className=\"row justify-content-center mt-5\">\r\n+        <div className=\"col-md-10\">\r\n+\r\n+          <div className=\"row\">\r\n+            \r\n+            <div className=\"col-md-6 px-2\">\r\n+              <div className=\"card rounded-2 shadow p-3 bg-primary-color-light-gradient\">\r\n+                <div className=\"card-body\">\r\n+\r\n+                <div className=\"row\">\r\n+                  <div className=\"col-md-12\">\r\n+                    <h5 className=\"font-weight-bold\"> Jadwal Sholat {city} </h5>\r\n+                    <small className=\"mt--2 text-white-50\">{date}</small>\r\n+                  </div>\r\n+                </div>\r\n+\r\n+                <hr className=\"line-black-50\"/>\r\n+\r\n+                <div className=\"row\">\r\n+                  \r\n+                  <div className=\"col-md-12\">\r\n+                    <div className=\"row\">\r\n+                      \r\n+                      {\r\n+                        Object.keys(jadwalSholat).map((v,k) => {\r\n+                          return(\r\n+                            <div key={k} className=\"col-md-12 my-1 text-center\">\r\n+                              <span>{v}</span>\r\n+                              <h6 className=\"font-weight-bold\">{jadwalSholat[v]}</h6>\r\n+                            </div>\r\n+                          )\r\n+                        })\r\n+                      }\r\n+                      \r\n+                    </div>\r\n+                  </div>\r\n+                  \r\n+                </div>\r\n+\r\n+                </div>\r\n+              </div>\r\n+            </div>\r\n+\r\n+            <div className=\"col-md-3 px-2\">\r\n+              <div className=\"card rounded-2 shadow p-3\">\r\n+                <div className=\"card-body\">\r\n+                  <div className=\"row\">\r\n+                    <div className=\"col text-center\">\r\n+                      <FcViewDetails style={{ fontSize: '55px' }}/>\r\n+                    </div>\r\n+                  </div>\r\n+                </div>\r\n+              </div>\r\n+            </div>\r\n+\r\n+            <div className=\"col-md-3 px-2\">\r\n+              <div className=\"card rounded-2 shadow p-3\">\r\n+                <div className=\"card-body\">\r\n+                  <div className=\"row\">\r\n+                    <div className=\"col text-center\">\r\n+                      <FcCalendar style={{ fontSize: '55px' }}/>\r\n+                    </div>\r\n+                  </div>\r\n+                </div>\r\n+              </div>\r\n+            </div>\r\n+\r\n+            <div className=\"col-md-3 px-2\">\r\n+              <div className=\"card rounded-2 shadow p-3\">\r\n+                <div className=\"card-body\">\r\n+                  <div className=\"row\">\r\n+                    <div className=\"col text-center\">\r\n+                      <FcAlarmClock style={{ fontSize: '55px' }}/>\r\n+                    </div>\r\n+                  </div>\r\n+                </div>\r\n+              </div>\r\n+            </div>\r\n+\r\n+            <div className=\"col-md-3 px-2\">\r\n+              <div className=\"card rounded-2 shadow p-3\">\r\n+                <div className=\"card-body\">\r\n+                  <div className=\"row\">\r\n+                    <div className=\"col text-center\">\r\n+                      <FcComboChart style={{ fontSize: '55px' }}/>\r\n+                    </div>\r\n+                  </div>\r\n+                </div>\r\n+              </div>\r\n+            </div>\r\n+\r\n+          </div>\r\n+\r\n+        </div>\r\n+      </div>\r\n+    </>\r\n+  )\r\n+}\r\n+\r\n+export default Dashboard\r\n"
                },
                {
                    "date": 1627171389315,
                    "content": "Index: \n===================================================================\n--- \n+++ \n@@ -0,0 +1,132 @@\n+import React, { useState, useEffect } from 'react'\r\n+import { FcViewDetails, FcCalendar, FcAlarmClock, FcComboChart } from \"react-icons/fc\"\r\n+import axios from 'axios'\r\n+\r\n+const Dashboard = () => {\r\n+\r\n+  const [jadwalSholat, setjadwalSholat] = useState([])\r\n+  const [city, setCity] = useState('')\r\n+  const [date, setDate] = useState('')\r\n+\r\n+  const getJadwalSholat = () => {\r\n+\r\n+    axios.get('https://api.pray.zone/v2/times/today.json?city=bandung')\r\n+    .then(function (data) {\r\n+      setDate(data.data.results.datetime[0].date.gregorian + ' / ' + data.data.results.datetime[0].date.hijri)\r\n+      setCity(data.data.results.location.city)\r\n+      setjadwalSholat(data.data.results.datetime[0].times)\r\n+    })\r\n+    .catch(function (error) {\r\n+      console.log(error)\r\n+    })\r\n+    \r\n+  }\r\n+\r\n+  useEffect(() => {\r\n+    getJadwalSholat()\r\n+    // eslint-disable-next-line react-hooks/exhaustive-deps\r\n+  }, [])\r\n+\r\n+\r\n+  return (\r\n+    <>\r\n+      <div className=\"row justify-content-center mt-5\">\r\n+        <div className=\"col-md-10\">\r\n+\r\n+          <div className=\"row\">\r\n+            \r\n+            <div className=\"col-md-6 px-2\">\r\n+              <div className=\"card rounded-2 shadow p-3 bg-primary-color-light-gradient\">\r\n+                <div className=\"card-body\">\r\n+\r\n+                <div className=\"row\">\r\n+                  <div className=\"col-md-12\">\r\n+                    <h5 className=\"font-weight-bold\"> Jadwal Sholat {city} </h5>\r\n+                    <small className=\"mt--2 text-white-50\">{date}</small>\r\n+                  </div>\r\n+                </div>\r\n+\r\n+                <hr className=\"line-black-50\"/>\r\n+\r\n+                <div className=\"row\">\r\n+                  \r\n+                  <div className=\"col-md-12\">\r\n+                    <div className=\"row\">\r\n+                      \r\n+                      {\r\n+                        Object.keys(jadwalSholat).map((v,k) => {\r\n+                          return(\r\n+                            <div key={k} className=\"col-md-12 my-1\">\r\n+                              <span>{v}</span>\r\n+                              <h6 className=\"font-weight-bold\">{jadwalSholat[v]}</h6>\r\n+                            </div>\r\n+                          )\r\n+                        })\r\n+                      }\r\n+                      \r\n+                    </div>\r\n+                  </div>\r\n+                  \r\n+                </div>\r\n+\r\n+                </div>\r\n+              </div>\r\n+            </div>\r\n+\r\n+            <div className=\"col-md-3 px-2\">\r\n+              <div className=\"card rounded-2 shadow p-3\">\r\n+                <div className=\"card-body\">\r\n+                  <div className=\"row\">\r\n+                    <div className=\"col text-center\">\r\n+                      <FcViewDetails style={{ fontSize: '55px' }}/>\r\n+                    </div>\r\n+                  </div>\r\n+                </div>\r\n+              </div>\r\n+            </div>\r\n+\r\n+            <div className=\"col-md-3 px-2\">\r\n+              <div className=\"card rounded-2 shadow p-3\">\r\n+                <div className=\"card-body\">\r\n+                  <div className=\"row\">\r\n+                    <div className=\"col text-center\">\r\n+                      <FcCalendar style={{ fontSize: '55px' }}/>\r\n+                    </div>\r\n+                  </div>\r\n+                </div>\r\n+              </div>\r\n+            </div>\r\n+\r\n+            <div className=\"col-md-3 px-2\">\r\n+              <div className=\"card rounded-2 shadow p-3\">\r\n+                <div className=\"card-body\">\r\n+                  <div className=\"row\">\r\n+                    <div className=\"col text-center\">\r\n+                      <FcAlarmClock style={{ fontSize: '55px' }}/>\r\n+                    </div>\r\n+                  </div>\r\n+                </div>\r\n+              </div>\r\n+            </div>\r\n+\r\n+            <div className=\"col-md-3 px-2\">\r\n+              <div className=\"card rounded-2 shadow p-3\">\r\n+                <div className=\"card-body\">\r\n+                  <div className=\"row\">\r\n+                    <div className=\"col text-center\">\r\n+                      <FcComboChart style={{ fontSize: '55px' }}/>\r\n+                    </div>\r\n+                  </div>\r\n+                </div>\r\n+              </div>\r\n+            </div>\r\n+\r\n+          </div>\r\n+\r\n+        </div>\r\n+      </div>\r\n+    </>\r\n+  )\r\n+}\r\n+\r\n+export default Dashboard\r\n"
                },
                {
                    "date": 1627171398942,
                    "content": "Index: \n===================================================================\n--- \n+++ \n@@ -0,0 +1,132 @@\n+import React, { useState, useEffect } from 'react'\r\n+import { FcViewDetails, FcCalendar, FcAlarmClock, FcComboChart } from \"react-icons/fc\"\r\n+import axios from 'axios'\r\n+\r\n+const Dashboard = () => {\r\n+\r\n+  const [jadwalSholat, setjadwalSholat] = useState([])\r\n+  const [city, setCity] = useState('')\r\n+  const [date, setDate] = useState('')\r\n+\r\n+  const getJadwalSholat = () => {\r\n+\r\n+    axios.get('https://api.pray.zone/v2/times/today.json?city=bandung')\r\n+    .then(function (data) {\r\n+      setDate(data.data.results.datetime[0].date.gregorian + ' / ' + data.data.results.datetime[0].date.hijri)\r\n+      setCity(data.data.results.location.city)\r\n+      setjadwalSholat(data.data.results.datetime[0].times)\r\n+    })\r\n+    .catch(function (error) {\r\n+      console.log(error)\r\n+    })\r\n+    \r\n+  }\r\n+\r\n+  useEffect(() => {\r\n+    getJadwalSholat()\r\n+    // eslint-disable-next-line react-hooks/exhaustive-deps\r\n+  }, [])\r\n+\r\n+\r\n+  return (\r\n+    <>\r\n+      <div className=\"row justify-content-center mt-5\">\r\n+        <div className=\"col-md-10\">\r\n+\r\n+          <div className=\"row\">\r\n+            \r\n+            <div className=\"col-md-4 px-2\">\r\n+              <div className=\"card rounded-2 shadow p-3 bg-primary-color-light-gradient\">\r\n+                <div className=\"card-body\">\r\n+\r\n+                <div className=\"row\">\r\n+                  <div className=\"col-md-12\">\r\n+                    <h5 className=\"font-weight-bold\"> Jadwal Sholat {city} </h5>\r\n+                    <small className=\"mt--2 text-white-50\">{date}</small>\r\n+                  </div>\r\n+                </div>\r\n+\r\n+                <hr className=\"line-black-50\"/>\r\n+\r\n+                <div className=\"row\">\r\n+                  \r\n+                  <div className=\"col-md-12\">\r\n+                    <div className=\"row\">\r\n+                      \r\n+                      {\r\n+                        Object.keys(jadwalSholat).map((v,k) => {\r\n+                          return(\r\n+                            <div key={k} className=\"col-md-12 my-1\">\r\n+                              <span>{v}</span>\r\n+                              <h6 className=\"font-weight-bold\">{jadwalSholat[v]}</h6>\r\n+                            </div>\r\n+                          )\r\n+                        })\r\n+                      }\r\n+                      \r\n+                    </div>\r\n+                  </div>\r\n+                  \r\n+                </div>\r\n+\r\n+                </div>\r\n+              </div>\r\n+            </div>\r\n+\r\n+            <div className=\"col-md-3 px-2\">\r\n+              <div className=\"card rounded-2 shadow p-3\">\r\n+                <div className=\"card-body\">\r\n+                  <div className=\"row\">\r\n+                    <div className=\"col text-center\">\r\n+                      <FcViewDetails style={{ fontSize: '55px' }}/>\r\n+                    </div>\r\n+                  </div>\r\n+                </div>\r\n+              </div>\r\n+            </div>\r\n+\r\n+            <div className=\"col-md-3 px-2\">\r\n+              <div className=\"card rounded-2 shadow p-3\">\r\n+                <div className=\"card-body\">\r\n+                  <div className=\"row\">\r\n+                    <div className=\"col text-center\">\r\n+                      <FcCalendar style={{ fontSize: '55px' }}/>\r\n+                    </div>\r\n+                  </div>\r\n+                </div>\r\n+              </div>\r\n+            </div>\r\n+\r\n+            <div className=\"col-md-3 px-2\">\r\n+              <div className=\"card rounded-2 shadow p-3\">\r\n+                <div className=\"card-body\">\r\n+                  <div className=\"row\">\r\n+                    <div className=\"col text-center\">\r\n+                      <FcAlarmClock style={{ fontSize: '55px' }}/>\r\n+                    </div>\r\n+                  </div>\r\n+                </div>\r\n+              </div>\r\n+            </div>\r\n+\r\n+            <div className=\"col-md-3 px-2\">\r\n+              <div className=\"card rounded-2 shadow p-3\">\r\n+                <div className=\"card-body\">\r\n+                  <div className=\"row\">\r\n+                    <div className=\"col text-center\">\r\n+                      <FcComboChart style={{ fontSize: '55px' }}/>\r\n+                    </div>\r\n+                  </div>\r\n+                </div>\r\n+              </div>\r\n+            </div>\r\n+\r\n+          </div>\r\n+\r\n+        </div>\r\n+      </div>\r\n+    </>\r\n+  )\r\n+}\r\n+\r\n+export default Dashboard\r\n"
                },
                {
                    "date": 1627171406201,
                    "content": "Index: \n===================================================================\n--- \n+++ \n@@ -0,0 +1,132 @@\n+import React, { useState, useEffect } from 'react'\r\n+import { FcViewDetails, FcCalendar, FcAlarmClock, FcComboChart } from \"react-icons/fc\"\r\n+import axios from 'axios'\r\n+\r\n+const Dashboard = () => {\r\n+\r\n+  const [jadwalSholat, setjadwalSholat] = useState([])\r\n+  const [city, setCity] = useState('')\r\n+  const [date, setDate] = useState('')\r\n+\r\n+  const getJadwalSholat = () => {\r\n+\r\n+    axios.get('https://api.pray.zone/v2/times/today.json?city=bandung')\r\n+    .then(function (data) {\r\n+      setDate(data.data.results.datetime[0].date.gregorian + ' / ' + data.data.results.datetime[0].date.hijri)\r\n+      setCity(data.data.results.location.city)\r\n+      setjadwalSholat(data.data.results.datetime[0].times)\r\n+    })\r\n+    .catch(function (error) {\r\n+      console.log(error)\r\n+    })\r\n+    \r\n+  }\r\n+\r\n+  useEffect(() => {\r\n+    getJadwalSholat()\r\n+    // eslint-disable-next-line react-hooks/exhaustive-deps\r\n+  }, [])\r\n+\r\n+\r\n+  return (\r\n+    <>\r\n+      <div className=\"row justify-content-center mt-5\">\r\n+        <div className=\"col-md-10\">\r\n+\r\n+          <div className=\"row\">\r\n+            \r\n+            <div className=\"col-md-4 px-2\">\r\n+              <div className=\"card rounded-2 shadow p-3 bg-primary-color-light-gradient\">\r\n+                <div className=\"card-body\">\r\n+\r\n+                <div className=\"row\">\r\n+                  <div className=\"col-md-12\">\r\n+                    <h5 className=\"font-weight-bold\"> Jadwal Sholat {city} </h5>\r\n+                    <small className=\"mt--2 text-white-50\">{date}</small>\r\n+                  </div>\r\n+                </div>\r\n+\r\n+                <hr className=\"line-black-50\"/>\r\n+\r\n+                <div className=\"row\">\r\n+                  \r\n+                  <div className=\"col-md-12\">\r\n+                    <div className=\"row\">\r\n+                      \r\n+                      {\r\n+                        Object.keys(jadwalSholat).map((v,k) => {\r\n+                          return(\r\n+                            <div key={k} className=\"col-md-6 my-1\">\r\n+                              <span>{v}</span>\r\n+                              <h6 className=\"font-weight-bold\">{jadwalSholat[v]}</h6>\r\n+                            </div>\r\n+                          )\r\n+                        })\r\n+                      }\r\n+                      \r\n+                    </div>\r\n+                  </div>\r\n+                  \r\n+                </div>\r\n+\r\n+                </div>\r\n+              </div>\r\n+            </div>\r\n+\r\n+            <div className=\"col-md-3 px-2\">\r\n+              <div className=\"card rounded-2 shadow p-3\">\r\n+                <div className=\"card-body\">\r\n+                  <div className=\"row\">\r\n+                    <div className=\"col text-center\">\r\n+                      <FcViewDetails style={{ fontSize: '55px' }}/>\r\n+                    </div>\r\n+                  </div>\r\n+                </div>\r\n+              </div>\r\n+            </div>\r\n+\r\n+            <div className=\"col-md-3 px-2\">\r\n+              <div className=\"card rounded-2 shadow p-3\">\r\n+                <div className=\"card-body\">\r\n+                  <div className=\"row\">\r\n+                    <div className=\"col text-center\">\r\n+                      <FcCalendar style={{ fontSize: '55px' }}/>\r\n+                    </div>\r\n+                  </div>\r\n+                </div>\r\n+              </div>\r\n+            </div>\r\n+\r\n+            <div className=\"col-md-3 px-2\">\r\n+              <div className=\"card rounded-2 shadow p-3\">\r\n+                <div className=\"card-body\">\r\n+                  <div className=\"row\">\r\n+                    <div className=\"col text-center\">\r\n+                      <FcAlarmClock style={{ fontSize: '55px' }}/>\r\n+                    </div>\r\n+                  </div>\r\n+                </div>\r\n+              </div>\r\n+            </div>\r\n+\r\n+            <div className=\"col-md-3 px-2\">\r\n+              <div className=\"card rounded-2 shadow p-3\">\r\n+                <div className=\"card-body\">\r\n+                  <div className=\"row\">\r\n+                    <div className=\"col text-center\">\r\n+                      <FcComboChart style={{ fontSize: '55px' }}/>\r\n+                    </div>\r\n+                  </div>\r\n+                </div>\r\n+              </div>\r\n+            </div>\r\n+\r\n+          </div>\r\n+\r\n+        </div>\r\n+      </div>\r\n+    </>\r\n+  )\r\n+}\r\n+\r\n+export default Dashboard\r\n"
                },
                {
                    "date": 1627171418063,
                    "content": "Index: \n===================================================================\n--- \n+++ \n@@ -0,0 +1,132 @@\n+import React, { useState, useEffect } from 'react'\r\n+import { FcViewDetails, FcCalendar, FcAlarmClock, FcComboChart } from \"react-icons/fc\"\r\n+import axios from 'axios'\r\n+\r\n+const Dashboard = () => {\r\n+\r\n+  const [jadwalSholat, setjadwalSholat] = useState([])\r\n+  const [city, setCity] = useState('')\r\n+  const [date, setDate] = useState('')\r\n+\r\n+  const getJadwalSholat = () => {\r\n+\r\n+    axios.get('https://api.pray.zone/v2/times/today.json?city=bandung')\r\n+    .then(function (data) {\r\n+      setDate(data.data.results.datetime[0].date.gregorian + ' / ' + data.data.results.datetime[0].date.hijri)\r\n+      setCity(data.data.results.location.city)\r\n+      setjadwalSholat(data.data.results.datetime[0].times)\r\n+    })\r\n+    .catch(function (error) {\r\n+      console.log(error)\r\n+    })\r\n+    \r\n+  }\r\n+\r\n+  useEffect(() => {\r\n+    getJadwalSholat()\r\n+    // eslint-disable-next-line react-hooks/exhaustive-deps\r\n+  }, [])\r\n+\r\n+\r\n+  return (\r\n+    <>\r\n+      <div className=\"row justify-content-center mt-5\">\r\n+        <div className=\"col-md-10\">\r\n+\r\n+          <div className=\"row\">\r\n+            \r\n+            <div className=\"col-md-6 px-2\">\r\n+              <div className=\"card rounded-2 shadow p-3 bg-primary-color-light-gradient\">\r\n+                <div className=\"card-body\">\r\n+\r\n+                <div className=\"row\">\r\n+                  <div className=\"col-md-12\">\r\n+                    <h5 className=\"font-weight-bold\"> Jadwal Sholat {city} </h5>\r\n+                    <small className=\"mt--2 text-white-50\">{date}</small>\r\n+                  </div>\r\n+                </div>\r\n+\r\n+                <hr className=\"line-black-50\"/>\r\n+\r\n+                <div className=\"row\">\r\n+                  \r\n+                  <div className=\"col-md-12\">\r\n+                    <div className=\"row\">\r\n+                      \r\n+                      {\r\n+                        Object.keys(jadwalSholat).map((v,k) => {\r\n+                          return(\r\n+                            <div key={k} className=\"col-md-6 my-1\">\r\n+                              <span>{v}</span>\r\n+                              <h6 className=\"font-weight-bold\">{jadwalSholat[v]}</h6>\r\n+                            </div>\r\n+                          )\r\n+                        })\r\n+                      }\r\n+                      \r\n+                    </div>\r\n+                  </div>\r\n+                  \r\n+                </div>\r\n+\r\n+                </div>\r\n+              </div>\r\n+            </div>\r\n+\r\n+            <div className=\"col-md-3 px-2\">\r\n+              <div className=\"card rounded-2 shadow p-3\">\r\n+                <div className=\"card-body\">\r\n+                  <div className=\"row\">\r\n+                    <div className=\"col text-center\">\r\n+                      <FcViewDetails style={{ fontSize: '55px' }}/>\r\n+                    </div>\r\n+                  </div>\r\n+                </div>\r\n+              </div>\r\n+            </div>\r\n+\r\n+            <div className=\"col-md-3 px-2\">\r\n+              <div className=\"card rounded-2 shadow p-3\">\r\n+                <div className=\"card-body\">\r\n+                  <div className=\"row\">\r\n+                    <div className=\"col text-center\">\r\n+                      <FcCalendar style={{ fontSize: '55px' }}/>\r\n+                    </div>\r\n+                  </div>\r\n+                </div>\r\n+              </div>\r\n+            </div>\r\n+\r\n+            <div className=\"col-md-3 px-2\">\r\n+              <div className=\"card rounded-2 shadow p-3\">\r\n+                <div className=\"card-body\">\r\n+                  <div className=\"row\">\r\n+                    <div className=\"col text-center\">\r\n+                      <FcAlarmClock style={{ fontSize: '55px' }}/>\r\n+                    </div>\r\n+                  </div>\r\n+                </div>\r\n+              </div>\r\n+            </div>\r\n+\r\n+            <div className=\"col-md-3 px-2\">\r\n+              <div className=\"card rounded-2 shadow p-3\">\r\n+                <div className=\"card-body\">\r\n+                  <div className=\"row\">\r\n+                    <div className=\"col text-center\">\r\n+                      <FcComboChart style={{ fontSize: '55px' }}/>\r\n+                    </div>\r\n+                  </div>\r\n+                </div>\r\n+              </div>\r\n+            </div>\r\n+\r\n+          </div>\r\n+\r\n+        </div>\r\n+      </div>\r\n+    </>\r\n+  )\r\n+}\r\n+\r\n+export default Dashboard\r\n"
                },
                {
                    "date": 1627171456131,
                    "content": "Index: \n===================================================================\n--- \n+++ \n@@ -34,140 +34,8 @@\n         <div className=\"col-md-10\">\r\n \r\n           <div className=\"row\">\r\n             \r\n-            <div className=\"col-md-6 px-2\">\r\n-              <div className=\"card rounded-2 shadow p-3 bg-primary-color-light-gradient\">\r\n-                <div className=\"card-body\">\r\n-\r\n-                <div className=\"row\">\r\n-                  <div className=\"col-md-12\">\r\n-                    <h5 className=\"font-weight-bold\"> Jadwal Sholat {city} </h5>\r\n-                    <small className=\"mt--2 text-white-50\">{date}</small>\r\n-                  </div>\r\n-                </div>\r\n-\r\n-                <hr className=\"line-black-50\"/>\r\n-\r\n-                <div className=\"row\">\r\n-                  \r\n-                  <div className=\"col-md-12\">\r\n-                    <div className=\"row\">\r\n-                      \r\n-                      {\r\n-                        Object.keys(jadwalSholat).map((v,k) => {\r\n-                          return(\r\n-                            <div key={k} className=\"col-md-6 my-1\">\r\n-                              <span>{v}</span>\r\n-                              <h6 className=\"font-weight-bold\">{jadwalSholat[v]}</h6>\r\n-                            </div>\r\n-                          )\r\n-                        })\r\n-                      }\r\n-                      \r\n-                    </div>\r\n-                  </div>\r\n-                  \r\n-                </div>\r\n-\r\n-                </div>\r\n-              </div>\r\n-            </div>\r\n-\r\n-            <div className=\"col-md-3 px-2\">\r\n-              <div className=\"card rounded-2 shadow p-3\">\r\n-                <div className=\"card-body\">\r\n-                  <div className=\"row\">\r\n-                    <div className=\"col text-center\">\r\n-                      <FcViewDetails style={{ fontSize: '55px' }}/>\r\n-                    </div>\r\n-                  </div>\r\n-                </div>\r\n-              </div>\r\n-            </div>\r\n-\r\n-            <div className=\"col-md-3 px-2\">\r\n-              <div className=\"card rounded-2 shadow p-3\">\r\n-                <div className=\"card-body\">\r\n-                  <div className=\"row\">\r\n-                    <div className=\"col text-center\">\r\n-                      <FcCalendar style={{ fontSize: '55px' }}/>\r\n-                    </div>\r\n-                  </div>\r\n-                </div>\r\n-              </div>\r\n-            </div>\r\n-\r\n-            <div className=\"col-md-3 px-2\">\r\n-              <div className=\"card rounded-2 shadow p-3\">\r\n-                <div className=\"card-body\">\r\n-                  <div className=\"row\">\r\n-                    <div className=\"col text-center\">\r\n-                      <FcAlarmClock style={{ fontSize: '55px' }}/>\r\n-                    </div>\r\n-                  </div>\r\n-                </div>\r\n-              </div>\r\n-            </div>\r\n-\r\n-            <div className=\"col-md-3 px-2\">\r\n-              <div className=\"card rounded-2 shadow p-3\">\r\n-                <div className=\"card-body\">\r\n-                  <div className=\"row\">\r\n-                    <div className=\"col text-center\">\r\n-                      <FcComboChart style={{ fontSize: '55px' }}/>\r\n-                    </div>\r\n-                  </div>\r\n-                </div>\r\n-              </div>\r\n-            </div>\r\n-\r\n-          </div>\r\n-\r\n-        </div>\r\n-      </div>\r\n-    </>\r\n-  )\r\n-}\r\n-\r\n-export default Dashboard\r\n-import React, { useState, useEffect } from 'react'\r\n-import { FcViewDetails, FcCalendar, FcAlarmClock, FcComboChart } from \"react-icons/fc\"\r\n-import axios from 'axios'\r\n-\r\n-const Dashboard = () => {\r\n-\r\n-  const [jadwalSholat, setjadwalSholat] = useState([])\r\n-  const [city, setCity] = useState('')\r\n-  const [date, setDate] = useState('')\r\n-\r\n-  const getJadwalSholat = () => {\r\n-\r\n-    axios.get('https://api.pray.zone/v2/times/today.json?city=bandung')\r\n-    .then(function (data) {\r\n-      setDate(data.data.results.datetime[0].date.gregorian + ' / ' + data.data.results.datetime[0].date.hijri)\r\n-      setCity(data.data.results.location.city)\r\n-      setjadwalSholat(data.data.results.datetime[0].times)\r\n-    })\r\n-    .catch(function (error) {\r\n-      console.log(error)\r\n-    })\r\n-    \r\n-  }\r\n-\r\n-  useEffect(() => {\r\n-    getJadwalSholat()\r\n-    // eslint-disable-next-line react-hooks/exhaustive-deps\r\n-  }, [])\r\n-\r\n-\r\n-  return (\r\n-    <>\r\n-      <div className=\"row justify-content-center mt-5\">\r\n-        <div className=\"col-md-10\">\r\n-\r\n-          <div className=\"row\">\r\n-            \r\n             <div className=\"col-md-4 px-2\">\r\n               <div className=\"card rounded-2 shadow p-3 bg-primary-color-light-gradient\">\r\n                 <div className=\"card-body\">\r\n \r\n@@ -214,11 +82,8 @@\n                     </div>\r\n                   </div>\r\n                 </div>\r\n               </div>\r\n-            </div>\r\n-\r\n-            <div className=\"col-md-3 px-2\">\r\n               <div className=\"card rounded-2 shadow p-3\">\r\n                 <div className=\"card-body\">\r\n                   <div className=\"row\">\r\n                     <div className=\"col text-center\">\r\n@@ -233,128 +98,8 @@\n               <div className=\"card rounded-2 shadow p-3\">\r\n                 <div className=\"card-body\">\r\n                   <div className=\"row\">\r\n                     <div className=\"col text-center\">\r\n-                      <FcAlarmClock style={{ fontSize: '55px' }}/>\r\n-                    </div>\r\n-                  </div>\r\n-                </div>\r\n-              </div>\r\n-            </div>\r\n-\r\n-            <div className=\"col-md-3 px-2\">\r\n-              <div className=\"card rounded-2 shadow p-3\">\r\n-                <div className=\"card-body\">\r\n-                  <div className=\"row\">\r\n-                    <div className=\"col text-center\">\r\n-                      <FcComboChart style={{ fontSize: '55px' }}/>\r\n-                    </div>\r\n-                  </div>\r\n-                </div>\r\n-              </div>\r\n-            </div>\r\n-\r\n-          </div>\r\n-\r\n-        </div>\r\n-      </div>\r\n-    </>\r\n-  )\r\n-}\r\n-\r\n-export default Dashboard\r\n-import React, { useState, useEffect } from 'react'\r\n-import { FcViewDetails, FcCalendar, FcAlarmClock, FcComboChart } from \"react-icons/fc\"\r\n-import axios from 'axios'\r\n-\r\n-const Dashboard = () => {\r\n-\r\n-  const [jadwalSholat, setjadwalSholat] = useState([])\r\n-  const [city, setCity] = useState('')\r\n-  const [date, setDate] = useState('')\r\n-\r\n-  const getJadwalSholat = () => {\r\n-\r\n-    axios.get('https://api.pray.zone/v2/times/today.json?city=bandung')\r\n-    .then(function (data) {\r\n-      setDate(data.data.results.datetime[0].date.gregorian + ' / ' + data.data.results.datetime[0].date.hijri)\r\n-      setCity(data.data.results.location.city)\r\n-      setjadwalSholat(data.data.results.datetime[0].times)\r\n-    })\r\n-    .catch(function (error) {\r\n-      console.log(error)\r\n-    })\r\n-    \r\n-  }\r\n-\r\n-  useEffect(() => {\r\n-    getJadwalSholat()\r\n-    // eslint-disable-next-line react-hooks/exhaustive-deps\r\n-  }, [])\r\n-\r\n-\r\n-  return (\r\n-    <>\r\n-      <div className=\"row justify-content-center mt-5\">\r\n-        <div className=\"col-md-10\">\r\n-\r\n-          <div className=\"row\">\r\n-            \r\n-            <div className=\"col-md-4 px-2\">\r\n-              <div className=\"card rounded-2 shadow p-3 bg-primary-color-light-gradient\">\r\n-                <div className=\"card-body\">\r\n-\r\n-                <div className=\"row\">\r\n-                  <div className=\"col-md-12\">\r\n-                    <h5 className=\"font-weight-bold\"> Jadwal Sholat {city} </h5>\r\n-                    <small className=\"mt--2 text-white-50\">{date}</small>\r\n-                  </div>\r\n-                </div>\r\n-\r\n-                <hr className=\"line-black-50\"/>\r\n-\r\n-                <div className=\"row\">\r\n-                  \r\n-                  <div className=\"col-md-12\">\r\n-                    <div className=\"row\">\r\n-                      \r\n-                      {\r\n-                        Object.keys(jadwalSholat).map((v,k) => {\r\n-                          return(\r\n-                            <div key={k} className=\"col-md-12 my-1\">\r\n-                              <span>{v}</span>\r\n-                              <h6 className=\"font-weight-bold\">{jadwalSholat[v]}</h6>\r\n-                            </div>\r\n-                          )\r\n-                        })\r\n-                      }\r\n-                      \r\n-                    </div>\r\n-                  </div>\r\n-                  \r\n-                </div>\r\n-\r\n-                </div>\r\n-              </div>\r\n-            </div>\r\n-\r\n-            <div className=\"col-md-3 px-2\">\r\n-              <div className=\"card rounded-2 shadow p-3\">\r\n-                <div className=\"card-body\">\r\n-                  <div className=\"row\">\r\n-                    <div className=\"col text-center\">\r\n-                      <FcViewDetails style={{ fontSize: '55px' }}/>\r\n-                    </div>\r\n-                  </div>\r\n-                </div>\r\n-              </div>\r\n-            </div>\r\n-\r\n-            <div className=\"col-md-3 px-2\">\r\n-              <div className=\"card rounded-2 shadow p-3\">\r\n-                <div className=\"card-body\">\r\n-                  <div className=\"row\">\r\n-                    <div className=\"col text-center\">\r\n                       <FcCalendar style={{ fontSize: '55px' }}/>\r\n                     </div>\r\n                   </div>\r\n                 </div>\r\n@@ -393,400 +138,4 @@\n   )\r\n }\r\n \r\n export default Dashboard\r\n-import React, { useState, useEffect } from 'react'\r\n-import { FcViewDetails, FcCalendar, FcAlarmClock, FcComboChart } from \"react-icons/fc\"\r\n-import axios from 'axios'\r\n-\r\n-const Dashboard = () => {\r\n-\r\n-  const [jadwalSholat, setjadwalSholat] = useState([])\r\n-  const [city, setCity] = useState('')\r\n-  const [date, setDate] = useState('')\r\n-\r\n-  const getJadwalSholat = () => {\r\n-\r\n-    axios.get('https://api.pray.zone/v2/times/today.json?city=bandung')\r\n-    .then(function (data) {\r\n-      setDate(data.data.results.datetime[0].date.gregorian + ' / ' + data.data.results.datetime[0].date.hijri)\r\n-      setCity(data.data.results.location.city)\r\n-      setjadwalSholat(data.data.results.datetime[0].times)\r\n-    })\r\n-    .catch(function (error) {\r\n-      console.log(error)\r\n-    })\r\n-    \r\n-  }\r\n-\r\n-  useEffect(() => {\r\n-    getJadwalSholat()\r\n-    // eslint-disable-next-line react-hooks/exhaustive-deps\r\n-  }, [])\r\n-\r\n-\r\n-  return (\r\n-    <>\r\n-      <div className=\"row justify-content-center mt-5\">\r\n-        <div className=\"col-md-10\">\r\n-\r\n-          <div className=\"row\">\r\n-            \r\n-            <div className=\"col-md-6 px-2\">\r\n-              <div className=\"card rounded-2 shadow p-3 bg-primary-color-light-gradient\">\r\n-                <div className=\"card-body\">\r\n-\r\n-                <div className=\"row\">\r\n-                  <div className=\"col-md-12\">\r\n-                    <h5 className=\"font-weight-bold\"> Jadwal Sholat {city} </h5>\r\n-                    <small className=\"mt--2 text-white-50\">{date}</small>\r\n-                  </div>\r\n-                </div>\r\n-\r\n-                <hr className=\"line-black-50\"/>\r\n-\r\n-                <div className=\"row\">\r\n-                  \r\n-                  <div className=\"col-md-12\">\r\n-                    <div className=\"row\">\r\n-                      \r\n-                      {\r\n-                        Object.keys(jadwalSholat).map((v,k) => {\r\n-                          return(\r\n-                            <div key={k} className=\"col-md-12 my-1\">\r\n-                              <span>{v}</span>\r\n-                              <h6 className=\"font-weight-bold\">{jadwalSholat[v]}</h6>\r\n-                            </div>\r\n-                          )\r\n-                        })\r\n-                      }\r\n-                      \r\n-                    </div>\r\n-                  </div>\r\n-                  \r\n-                </div>\r\n-\r\n-                </div>\r\n-              </div>\r\n-            </div>\r\n-\r\n-            <div className=\"col-md-3 px-2\">\r\n-              <div className=\"card rounded-2 shadow p-3\">\r\n-                <div className=\"card-body\">\r\n-                  <div className=\"row\">\r\n-                    <div className=\"col text-center\">\r\n-                      <FcViewDetails style={{ fontSize: '55px' }}/>\r\n-                    </div>\r\n-                  </div>\r\n-                </div>\r\n-              </div>\r\n-            </div>\r\n-\r\n-            <div className=\"col-md-3 px-2\">\r\n-              <div className=\"card rounded-2 shadow p-3\">\r\n-                <div className=\"card-body\">\r\n-                  <div className=\"row\">\r\n-                    <div className=\"col text-center\">\r\n-                      <FcCalendar style={{ fontSize: '55px' }}/>\r\n-                    </div>\r\n-                  </div>\r\n-                </div>\r\n-              </div>\r\n-            </div>\r\n-\r\n-            <div className=\"col-md-3 px-2\">\r\n-              <div className=\"card rounded-2 shadow p-3\">\r\n-                <div className=\"card-body\">\r\n-                  <div className=\"row\">\r\n-                    <div className=\"col text-center\">\r\n-                      <FcAlarmClock style={{ fontSize: '55px' }}/>\r\n-                    </div>\r\n-                  </div>\r\n-                </div>\r\n-              </div>\r\n-            </div>\r\n-\r\n-            <div className=\"col-md-3 px-2\">\r\n-              <div className=\"card rounded-2 shadow p-3\">\r\n-                <div className=\"card-body\">\r\n-                  <div className=\"row\">\r\n-                    <div className=\"col text-center\">\r\n-                      <FcComboChart style={{ fontSize: '55px' }}/>\r\n-                    </div>\r\n-                  </div>\r\n-                </div>\r\n-              </div>\r\n-            </div>\r\n-\r\n-          </div>\r\n-\r\n-        </div>\r\n-      </div>\r\n-    </>\r\n-  )\r\n-}\r\n-\r\n-export default Dashboard\r\n-import React, { useState, useEffect } from 'react'\r\n-import { FcViewDetails, FcCalendar, FcAlarmClock, FcComboChart } from \"react-icons/fc\"\r\n-import axios from 'axios'\r\n-\r\n-const Dashboard = () => {\r\n-\r\n-  const [jadwalSholat, setjadwalSholat] = useState([])\r\n-  const [city, setCity] = useState('')\r\n-  const [date, setDate] = useState('')\r\n-\r\n-  const getJadwalSholat = () => {\r\n-\r\n-    axios.get('https://api.pray.zone/v2/times/today.json?city=bandung')\r\n-    .then(function (data) {\r\n-      setDate(data.data.results.datetime[0].date.gregorian + ' / ' + data.data.results.datetime[0].date.hijri)\r\n-      setCity(data.data.results.location.city)\r\n-      setjadwalSholat(data.data.results.datetime[0].times)\r\n-    })\r\n-    .catch(function (error) {\r\n-      console.log(error)\r\n-    })\r\n-    \r\n-  }\r\n-\r\n-  useEffect(() => {\r\n-    getJadwalSholat()\r\n-    // eslint-disable-next-line react-hooks/exhaustive-deps\r\n-  }, [])\r\n-\r\n-\r\n-  return (\r\n-    <>\r\n-      <div className=\"row justify-content-center mt-5\">\r\n-        <div className=\"col-md-10\">\r\n-\r\n-          <div className=\"row\">\r\n-            \r\n-            <div className=\"col-md-6 px-2\">\r\n-              <div className=\"card rounded-2 shadow p-3 bg-primary-color-light-gradient\">\r\n-                <div className=\"card-body\">\r\n-\r\n-                <div className=\"row\">\r\n-                  <div className=\"col-md-12\">\r\n-                    <h5 className=\"font-weight-bold\"> Jadwal Sholat {city} </h5>\r\n-                    <small className=\"mt--2 text-white-50\">{date}</small>\r\n-                  </div>\r\n-                </div>\r\n-\r\n-                <hr className=\"line-black-50\"/>\r\n-\r\n-                <div className=\"row\">\r\n-                  \r\n-                  <div className=\"col-md-12\">\r\n-                    <div className=\"row\">\r\n-                      \r\n-                      {\r\n-                        Object.keys(jadwalSholat).map((v,k) => {\r\n-                          return(\r\n-                            <div key={k} className=\"col-md-12 my-1 text-center\">\r\n-                              <span>{v}</span>\r\n-                              <h6 className=\"font-weight-bold\">{jadwalSholat[v]}</h6>\r\n-                            </div>\r\n-                          )\r\n-                        })\r\n-                      }\r\n-                      \r\n-                    </div>\r\n-                  </div>\r\n-                  \r\n-                </div>\r\n-\r\n-                </div>\r\n-              </div>\r\n-            </div>\r\n-\r\n-            <div className=\"col-md-3 px-2\">\r\n-              <div className=\"card rounded-2 shadow p-3\">\r\n-                <div className=\"card-body\">\r\n-                  <div className=\"row\">\r\n-                    <div className=\"col text-center\">\r\n-                      <FcViewDetails style={{ fontSize: '55px' }}/>\r\n-                    </div>\r\n-                  </div>\r\n-                </div>\r\n-              </div>\r\n-            </div>\r\n-\r\n-            <div className=\"col-md-3 px-2\">\r\n-              <div className=\"card rounded-2 shadow p-3\">\r\n-                <div className=\"card-body\">\r\n-                  <div className=\"row\">\r\n-                    <div className=\"col text-center\">\r\n-                      <FcCalendar style={{ fontSize: '55px' }}/>\r\n-                    </div>\r\n-                  </div>\r\n-                </div>\r\n-              </div>\r\n-            </div>\r\n-\r\n-            <div className=\"col-md-3 px-2\">\r\n-              <div className=\"card rounded-2 shadow p-3\">\r\n-                <div className=\"card-body\">\r\n-                  <div className=\"row\">\r\n-                    <div className=\"col text-center\">\r\n-                      <FcAlarmClock style={{ fontSize: '55px' }}/>\r\n-                    </div>\r\n-                  </div>\r\n-                </div>\r\n-              </div>\r\n-            </div>\r\n-\r\n-            <div className=\"col-md-3 px-2\">\r\n-              <div className=\"card rounded-2 shadow p-3\">\r\n-                <div className=\"card-body\">\r\n-                  <div className=\"row\">\r\n-                    <div className=\"col text-center\">\r\n-                      <FcComboChart style={{ fontSize: '55px' }}/>\r\n-                    </div>\r\n-                  </div>\r\n-                </div>\r\n-              </div>\r\n-            </div>\r\n-\r\n-          </div>\r\n-\r\n-        </div>\r\n-      </div>\r\n-    </>\r\n-  )\r\n-}\r\n-\r\n-export default Dashboard\r\n-import React, { useState, useEffect } from 'react'\r\n-import { FcViewDetails, FcCalendar, FcAlarmClock, FcComboChart } from \"react-icons/fc\"\r\n-import axios from 'axios'\r\n-\r\n-const Dashboard = () => {\r\n-\r\n-  const [jadwalSholat, setjadwalSholat] = useState([])\r\n-  const [city, setCity] = useState('')\r\n-  const [date, setDate] = useState('')\r\n-\r\n-  const getJadwalSholat = () => {\r\n-\r\n-    axios.get('https://api.pray.zone/v2/times/today.json?city=bandung')\r\n-    .then(function (data) {\r\n-      setDate(data.data.results.datetime[0].date.gregorian + ' / ' + data.data.results.datetime[0].date.hijri)\r\n-      setCity(data.data.results.location.city)\r\n-      setjadwalSholat(data.data.results.datetime[0].times)\r\n-    })\r\n-    .catch(function (error) {\r\n-      console.log(error)\r\n-    })\r\n-    \r\n-  }\r\n-\r\n-  useEffect(() => {\r\n-    getJadwalSholat()\r\n-    // eslint-disable-next-line react-hooks/exhaustive-deps\r\n-  }, [])\r\n-\r\n-\r\n-  return (\r\n-    <>\r\n-      <div className=\"row justify-content-center mt-5\">\r\n-        <div className=\"col-md-10\">\r\n-\r\n-          <div className=\"row\">\r\n-            \r\n-            <div className=\"col-md-6 px-2\">\r\n-              <div className=\"card rounded-2 shadow p-3 bg-primary-color-light-gradient\">\r\n-                <div className=\"card-body\">\r\n-\r\n-                <div className=\"row\">\r\n-                  <div className=\"col-md-12\">\r\n-                    <h5 className=\"font-weight-bold\"> Jadwal Sholat {city} </h5>\r\n-                    <small className=\"mt--2 text-white-50\">{date}</small>\r\n-                  </div>\r\n-                </div>\r\n-\r\n-                <hr className=\"line-black-50\"/>\r\n-\r\n-                <div className=\"row\">\r\n-                  \r\n-                  <div className=\"col-md-12\">\r\n-                    <div className=\"row\">\r\n-                      \r\n-                      {\r\n-                        Object.keys(jadwalSholat).map((v,k) => {\r\n-                          return(\r\n-                            <div key={k} className=\"col-md-2 my-1 text-center\">\r\n-                              <span>{v}</span>\r\n-                              <h6 className=\"font-weight-bold\">{jadwalSholat[v]}</h6>\r\n-                            </div>\r\n-                          )\r\n-                        })\r\n-                      }\r\n-                      \r\n-                    </div>\r\n-                  </div>\r\n-                  \r\n-                </div>\r\n-\r\n-                </div>\r\n-              </div>\r\n-            </div>\r\n-\r\n-            <div className=\"col-md-3 px-2\">\r\n-              <div className=\"card rounded-2 shadow p-3\">\r\n-                <div className=\"card-body\">\r\n-                  <div className=\"row\">\r\n-                    <div className=\"col text-center\">\r\n-                      <FcViewDetails style={{ fontSize: '55px' }}/>\r\n-                    </div>\r\n-                  </div>\r\n-                </div>\r\n-              </div>\r\n-            </div>\r\n-\r\n-            <div className=\"col-md-3 px-2\">\r\n-              <div className=\"card rounded-2 shadow p-3\">\r\n-                <div className=\"card-body\">\r\n-                  <div className=\"row\">\r\n-                    <div className=\"col text-center\">\r\n-                      <FcCalendar style={{ fontSize: '55px' }}/>\r\n-                    </div>\r\n-                  </div>\r\n-                </div>\r\n-              </div>\r\n-            </div>\r\n-\r\n-            <div className=\"col-md-3 px-2\">\r\n-              <div className=\"card rounded-2 shadow p-3\">\r\n-                <div className=\"card-body\">\r\n-                  <div className=\"row\">\r\n-                    <div className=\"col text-center\">\r\n-                      <FcAlarmClock style={{ fontSize: '55px' }}/>\r\n-                    </div>\r\n-                  </div>\r\n-                </div>\r\n-              </div>\r\n-            </div>\r\n-\r\n-            <div className=\"col-md-3 px-2\">\r\n-              <div className=\"card rounded-2 shadow p-3\">\r\n-                <div className=\"card-body\">\r\n-                  <div className=\"row\">\r\n-                    <div className=\"col text-center\">\r\n-                      <FcComboChart style={{ fontSize: '55px' }}/>\r\n-                    </div>\r\n-                  </div>\r\n-                </div>\r\n-              </div>\r\n-            </div>\r\n-\r\n-          </div>\r\n-\r\n-        </div>\r\n-      </div>\r\n-    </>\r\n-  )\r\n-}\r\n-\r\n-export default Dashboard\r\n"
                },
                {
                    "date": 1627171468985,
                    "content": "Index: \n===================================================================\n--- \n+++ \n@@ -91,8 +91,17 @@\n                     </div>\r\n                   </div>\r\n                 </div>\r\n               </div>\r\n+              <div className=\"card rounded-2 shadow p-3\">\r\n+                <div className=\"card-body\">\r\n+                  <div className=\"row\">\r\n+                    <div className=\"col text-center\">\r\n+                      <FcCalendar style={{ fontSize: '55px' }}/>\r\n+                    </div>\r\n+                  </div>\r\n+                </div>\r\n+              </div>\r\n             </div>\r\n \r\n             <div className=\"col-md-3 px-2\">\r\n               <div className=\"card rounded-2 shadow p-3\">\r\n"
                },
                {
                    "date": 1627171503318,
                    "content": "Index: \n===================================================================\n--- \n+++ \n@@ -91,44 +91,20 @@\n                     </div>\r\n                   </div>\r\n                 </div>\r\n               </div>\r\n-              <div className=\"card rounded-2 shadow p-3\">\r\n-                <div className=\"card-body\">\r\n-                  <div className=\"row\">\r\n-                    <div className=\"col text-center\">\r\n-                      <FcCalendar style={{ fontSize: '55px' }}/>\r\n-                    </div>\r\n-                  </div>\r\n-                </div>\r\n-              </div>\r\n             </div>\r\n \r\n             <div className=\"col-md-3 px-2\">\r\n               <div className=\"card rounded-2 shadow p-3\">\r\n                 <div className=\"card-body\">\r\n                   <div className=\"row\">\r\n                     <div className=\"col text-center\">\r\n-                      <FcCalendar style={{ fontSize: '55px' }}/>\r\n-                    </div>\r\n-                  </div>\r\n-                </div>\r\n-              </div>\r\n-            </div>\r\n-\r\n-            <div className=\"col-md-3 px-2\">\r\n-              <div className=\"card rounded-2 shadow p-3\">\r\n-                <div className=\"card-body\">\r\n-                  <div className=\"row\">\r\n-                    <div className=\"col text-center\">\r\n                       <FcAlarmClock style={{ fontSize: '55px' }}/>\r\n                     </div>\r\n                   </div>\r\n                 </div>\r\n               </div>\r\n-            </div>\r\n-\r\n-            <div className=\"col-md-3 px-2\">\r\n               <div className=\"card rounded-2 shadow p-3\">\r\n                 <div className=\"card-body\">\r\n                   <div className=\"row\">\r\n                     <div className=\"col text-center\">\r\n"
                }
            ],
            "date": 1627171348088,
            "name": "Commit-0",
            "content": "import React, { useState, useEffect } from 'react'\r\nimport { FcViewDetails, FcCalendar, FcAlarmClock, FcComboChart } from \"react-icons/fc\"\r\nimport axios from 'axios'\r\n\r\nconst Dashboard = () => {\r\n\r\n  const [jadwalSholat, setjadwalSholat] = useState([])\r\n  const [city, setCity] = useState('')\r\n  const [date, setDate] = useState('')\r\n\r\n  const getJadwalSholat = () => {\r\n\r\n    axios.get('https://api.pray.zone/v2/times/today.json?city=bandung')\r\n    .then(function (data) {\r\n      setDate(data.data.results.datetime[0].date.gregorian + ' / ' + data.data.results.datetime[0].date.hijri)\r\n      setCity(data.data.results.location.city)\r\n      setjadwalSholat(data.data.results.datetime[0].times)\r\n    })\r\n    .catch(function (error) {\r\n      console.log(error)\r\n    })\r\n    \r\n  }\r\n\r\n  useEffect(() => {\r\n    getJadwalSholat()\r\n    // eslint-disable-next-line react-hooks/exhaustive-deps\r\n  }, [])\r\n\r\n\r\n  return (\r\n    <>\r\n      <div className=\"row justify-content-center mt-5\">\r\n        <div className=\"col-md-10\">\r\n\r\n          <div className=\"row\">\r\n            \r\n            <div className=\"col-md-12 px-2\">\r\n              <div className=\"card rounded-2 shadow p-3 bg-primary-color-light-gradient\">\r\n                <div className=\"card-body\">\r\n\r\n                <div className=\"row\">\r\n                  <div className=\"col-md-6\">\r\n                    <h5 className=\"font-weight-bold\"> Jadwal Sholat {city} </h5>\r\n                    <small className=\"mt--2 text-white-50\">{date}</small>\r\n                  </div>\r\n                </div>\r\n\r\n                <hr className=\"line-black-50\"/>\r\n\r\n                <div className=\"row\">\r\n                  \r\n                  <div className=\"col-md-12\">\r\n                    <div className=\"row\">\r\n                      \r\n                      {\r\n                        Object.keys(jadwalSholat).map((v,k) => {\r\n                          return(\r\n                            <div key={k} className=\"col-md-2 my-1 text-center\">\r\n                              <span>{v}</span>\r\n                              <h6 className=\"font-weight-bold\">{jadwalSholat[v]}</h6>\r\n                            </div>\r\n                          )\r\n                        })\r\n                      }\r\n                      \r\n                    </div>\r\n                  </div>\r\n                  \r\n                </div>\r\n\r\n                </div>\r\n              </div>\r\n            </div>\r\n\r\n            <div className=\"col-md-3 px-2\">\r\n              <div className=\"card rounded-2 shadow p-3\">\r\n                <div className=\"card-body\">\r\n                  <div className=\"row\">\r\n                    <div className=\"col text-center\">\r\n                      <FcViewDetails style={{ fontSize: '55px' }}/>\r\n                    </div>\r\n                  </div>\r\n                </div>\r\n              </div>\r\n            </div>\r\n\r\n            <div className=\"col-md-3 px-2\">\r\n              <div className=\"card rounded-2 shadow p-3\">\r\n                <div className=\"card-body\">\r\n                  <div className=\"row\">\r\n                    <div className=\"col text-center\">\r\n                      <FcCalendar style={{ fontSize: '55px' }}/>\r\n                    </div>\r\n                  </div>\r\n                </div>\r\n              </div>\r\n            </div>\r\n\r\n            <div className=\"col-md-3 px-2\">\r\n              <div className=\"card rounded-2 shadow p-3\">\r\n                <div className=\"card-body\">\r\n                  <div className=\"row\">\r\n                    <div className=\"col text-center\">\r\n                      <FcAlarmClock style={{ fontSize: '55px' }}/>\r\n                    </div>\r\n                  </div>\r\n                </div>\r\n              </div>\r\n            </div>\r\n\r\n            <div className=\"col-md-3 px-2\">\r\n              <div className=\"card rounded-2 shadow p-3\">\r\n                <div className=\"card-body\">\r\n                  <div className=\"row\">\r\n                    <div className=\"col text-center\">\r\n                      <FcComboChart style={{ fontSize: '55px' }}/>\r\n                    </div>\r\n                  </div>\r\n                </div>\r\n              </div>\r\n            </div>\r\n\r\n          </div>\r\n\r\n        </div>\r\n      </div>\r\n    </>\r\n  )\r\n}\r\n\r\nexport default Dashboard\r\n"
        }
    ]
}