{
    "sourceFile": "src/App.js",
    "activeCommit": 0,
    "commits": [
        {
            "activePatchIndex": 2,
            "patches": [
                {
                    "date": 1624433316026,
                    "content": "Index: \n===================================================================\n--- \n+++ \n"
                },
                {
                    "date": 1624433457374,
                    "content": "Index: \n===================================================================\n--- \n+++ \n@@ -1,8 +1,7 @@\n import React, { Component } from 'react'\r\n import { HashRouter, Route, Switch } from 'react-router-dom'\r\n import './scss/style.scss'\r\n-import \"react-datepicker/dist/react-datepicker.css\"\r\n \r\n const loading = (\r\n   <div className=\"pt-3 text-center\">\r\n     <div className=\"sk-spinner sk-spinner-pulse\"></div>\r\n"
                },
                {
                    "date": 1624433932951,
                    "content": "Index: \n===================================================================\n--- \n+++ \n@@ -1,7 +1,8 @@\n import React, { Component } from 'react'\r\n import { HashRouter, Route, Switch } from 'react-router-dom'\r\n import './scss/style.scss'\r\n+import \"react-datepicker/dist/react-datepicker.css\"\r\n \r\n const loading = (\r\n   <div className=\"pt-3 text-center\">\r\n     <div className=\"sk-spinner sk-spinner-pulse\"></div>\r\n"
                }
            ],
            "date": 1624433316026,
            "name": "Commit-0",
            "content": "import React, { Component } from 'react'\r\nimport { HashRouter, Route, Switch } from 'react-router-dom'\r\nimport './scss/style.scss'\r\nimport \"react-datepicker/dist/react-datepicker.css\"\r\n\r\nconst loading = (\r\n  <div className=\"pt-3 text-center\">\r\n    <div className=\"sk-spinner sk-spinner-pulse\"></div>\r\n  </div>\r\n)\r\n\r\n// Containers\r\nconst TheLayout = React.lazy(() => import('./containers/TheLayout'));\r\n\r\n// Pages\r\nconst Login = React.lazy(() => import('./views/pages/login/Login'));\r\nconst Register = React.lazy(() => import('./views/pages/register/Register'));\r\nconst Page404 = React.lazy(() => import('./views/pages/page404/Page404'));\r\nconst Page500 = React.lazy(() => import('./views/pages/page500/Page500'));\r\n\r\n\r\nclass App extends Component {\r\n\r\n  render() {\r\n    return (\r\n      <HashRouter>\r\n        <React.Suspense fallback={loading}>\r\n          <Switch>\r\n            <Route exact path=\"/login\" name=\"Login Page\" render={props => <Login {...props} />} />\r\n            <Route exact path=\"/register\" name=\"Register Page\" render={props => <Register {...props} />} />\r\n            <Route exact path=\"/404\" name=\"Page 404\" render={props => <Page404 {...props} />} />\r\n            <Route exact path=\"/500\" name=\"Page 500\" render={props => <Page500 {...props} />} />\r\n            <Route path=\"/\" name=\"Home\" render={props => <TheLayout {...props} />} />\r\n          </Switch>\r\n        </React.Suspense>\r\n      </HashRouter>\r\n    );\r\n  }\r\n}\r\n\r\nexport default App;\r\n"
        }
    ]
}